…
    ## ── Column specification ────────────────────────────────────────────────────────
    ## Delimiter: ","
    ## dbl  (8): prez_gop, gov_gop, sen_gop, rep_gop, prez_dem, gov_dem, sen_dem, r...
    ## date (1): mon

    ## 
    ## ℹ Use `spec()` to retrieve the full column specification for this data.
    ## ℹ Specify the column types or set `show_col_types = FALSE` to quiet this message.

``` r
pol_data
```

    ## # A tibble: 822 × 9
    ##     year month     president gov_gop sen_gop rep_gop gov_dem sen_dem rep_dem
    ##    <int> <chr>     <chr>       <dbl>   <dbl>   <dbl>   <dbl>   <dbl>   <dbl>
    ##  1  1947 January   dem            23      51     253      23      45     198
    ##  2  1947 February  dem            23      51     253      23      45     198
    ##  3  1947 March     dem            23      51     253      23      45     198
    ##  4  1947 April     dem            23      51     253      23      45     198
    ##  5  1947 May       dem            23      51     253      23      45     198
    ##  6  1947 June      dem            23      51     253      23      45     198
    ##  7  1947 July      dem            23      51     253      23      45     198
    ##  8  1947 August    dem            23      51     253      23      45     198
    ##  9  1947 September dem            23      51     253      23      45     198
    ## 10  1947 October   dem            23      51     253      23      45     198
    ## # … with 812 more rows
…
    ## ── Column specification ────────────────────────────────────────────────────────
    ## Delimiter: ","
    ## chr (1): date
    ## dbl (1): close

    ## 
    ## ℹ Use `spec()` to retrieve the full column specification for this data.
    ## ℹ Specify the column types or set `show_col_types = FALSE` to quiet this message.

``` r
stockmark_data
```

    ## # A tibble: 787 × 3
    ##     year month    stockmarket_index
    ##    <int> <chr>                <dbl>
    ##  1  2015 July                 2080.
    ##  2  2015 June                 2063.
    ##  3  2015 May                  2107.
    ##  4  2015 April                2086.
    ##  5  2015 March                2068.
    ##  6  2015 February             2104.
    ##  7  2015 January              1995.
    ##  8  2014 December             2059.
    ##  9  2014 November             2068.
    ## 10  2014 October              2018.
    ## # … with 777 more rows
…
    ## Rows: 68 Columns: 13

    ## ── Column specification ────────────────────────────────────────────────────────
    ## Delimiter: ","
    ## dbl (13): Year, Jan, Feb, Mar, Apr, May, Jun, Jul, Aug, Sep, Oct, Nov, Dec

    ## 
    ## ℹ Use `spec()` to retrieve the full column specification for this data.
    ## ℹ Specify the column types or set `show_col_types = FALSE` to quiet this message.

``` r
unemploy_data
```

    ## # A tibble: 816 × 3
    ##     year month     percentage
    ##    <int> <chr>          <dbl>
    ##  1  1948 January          3.4
    ##  2  1948 February         3.8
    ##  3  1948 March            4  
    ##  4  1948 April            3.9
    ##  5  1948 May              3.5
    ##  6  1948 June             3.6
    ##  7  1948 July             3.6
    ##  8  1948 August           3.9
    ##  9  1948 September        3.8
    ## 10  1948 October          3.7
    ## # … with 806 more rows
…
    ## ── Column specification ────────────────────────────────────────────────────────
    ## Delimiter: ","
    ## chr (3): Gender, Ethnicity, Child's First Name
    ## dbl (3): Year of Birth, Count, Rank

    ## 
    ## ℹ Use `spec()` to retrieve the full column specification for this data.
    ## ℹ Specify the column types or set `show_col_types = FALSE` to quiet this message.

``` r
babyname
```

    ## # A tibble: 19,418 × 6
    ##    year_of_birth gender ethnicity                  childs_first_name count  rank
    ##            <dbl> <chr>  <chr>                      <chr>             <dbl> <dbl>
    ##  1          2016 female ASIAN AND PACIFIC ISLANDER Olivia              172     1
    ##  2          2016 female ASIAN AND PACIFIC ISLANDER Chloe               112     2
    ##  3          2016 female ASIAN AND PACIFIC ISLANDER Sophia              104     3
    ##  4          2016 female ASIAN AND PACIFIC ISLANDER Emily                99     4
    ##  5          2016 female ASIAN AND PACIFIC ISLANDER Emma                 99     4
    ##  6          2016 female ASIAN AND PACIFIC ISLANDER Mia                  79     5
    ##  7          2016 female ASIAN AND PACIFIC ISLANDER Charlotte            59     6
    ##  8          2016 female ASIAN AND PACIFIC ISLANDER Sarah                57     7
    ##  9          2016 female ASIAN AND PACIFIC ISLANDER Isabella             56     8
    ## 10          2016 female ASIAN AND PACIFIC ISLANDER Hannah               56     8
    ## # … with 19,408 more rows
…
